lab2/partition2/part1/susan_edge_detector.vcd
$date
	Fri Oct 16 11:00:59 2015
$end
$version
	UCI SpecC VCD Writer v0.001
$end
$timescale
	1ps
$end

$var real 0 ! anonymous $end
$var event 1 " Main.design.in_image.r $end
$var event 1 # Main.design.in_image.s $end
$var event 1 $ Main.design.out_image.r $end
$var event 1 % Main.design.out_image.s $end
$var event 1 & Main.design.susan.image_pe1_pe2.r $end
$var event 1 ' Main.design.susan.image_pe1_pe2.s $end
$var event 1 ( Main.design.susan.mid_pe1_pe2.r $end
$var event 1 ) Main.design.susan.mid_pe1_pe2.s $end
$var real 1 * Main.design.susan.pe1.edges.detect_edges.setup_brightness_lut.setup_brightness_thread_0 $end
$var real 1 + Main.design.susan.pe1.edges.detect_edges.setup_brightness_lut.setup_brightness_thread_1 $end
$var real 1 , Main.design.susan.pe1.edges.detect_edges.susan_edges.susan_edges_a.susan_edges_a_thread_0 $end
$var real 1 - Main.design.susan.pe1.edges.detect_edges.susan_edges.susan_edges_a.susan_edges_a_thread_1 $end
$var real 1 . Main.design.susan.pe1.edges.detect_edges.susan_edges.susan_edges_b.susan_edges_b_thread_0 $end
$var real 1 / Main.design.susan.pe1.edges.detect_edges.susan_edges.susan_edges_b.susan_edges_b_thread_1 $end
$var real 1 0 Main.design.susan.pe1.edges.detect_edges.susan_edges.susan_edges_a $end
$var real 1 1 Main.design.susan.pe1.edges.detect_edges.susan_edges.susan_edges_b $end
$var real 1 2 Main.design.susan.pe1.edges.detect_edges.susan_edges.susan_edges_read_input $end
$var real 1 3 Main.design.susan.pe1.edges.detect_edges.susan_edges.susan_edges_write_output $end
$var real 1 4 Main.design.susan.pe1.edges.detect_edges.setup_brightness_lut $end
$var real 1 5 Main.design.susan.pe1.edges.detect_edges.susan_edges $end
$var real 1 6 Main.design.susan.pe1.edges.detect_edges $end
$var real 1 7 Main.design.susan.pe1.edges $end
$var real 1 8 Main.design.susan.pe2.draw.edge_draw.edge_draw_a.edge_draw_a_thread_0 $end
$var real 1 9 Main.design.susan.pe2.draw.edge_draw.edge_draw_a.edge_draw_a_thread_1 $end
$var real 1 : Main.design.susan.pe2.draw.edge_draw.edge_draw_b.edge_draw_b_thread_0 $end
$var real 1 ; Main.design.susan.pe2.draw.edge_draw.edge_draw_b.edge_draw_b_thread_1 $end
$var real 1 < Main.design.susan.pe2.draw.edge_draw.edge_draw_a $end
$var real 1 = Main.design.susan.pe2.draw.edge_draw.edge_draw_b $end
$var real 1 > Main.design.susan.pe2.draw.edge_draw.edge_draw_read_input $end
$var real 1 ? Main.design.susan.pe2.draw.edge_draw.edge_draw_write_output $end
$var real 1 @ Main.design.susan.pe2.draw.edge_draw $end
$var event 1 A Main.design.susan.pe2.mid_thin_edge.r $end
$var event 1 B Main.design.susan.pe2.mid_thin_edge.s $end
$var real 1 C Main.design.susan.pe2.thin.susan_thin.susan_thin_thread_0 $end
$var real 1 D Main.design.susan.pe2.thin.susan_thin.susan_thin_thread_1 $end
$var real 1 E Main.design.susan.pe2.thin.susan_thin $end
$var real 1 F Main.design.susan.pe2.thin.susan_thin_read_input $end
$var real 1 G Main.design.susan.pe2.thin.susan_thin_write_output $end
$var real 1 H Main.design.susan.pe2.draw $end
$var real 1 I Main.design.susan.pe2.mid_thin_edge $end
$var real 1 J Main.design.susan.pe2.thin $end
$var event 1 K Main.design.susan.r_pe1_pe2.r $end
$var event 1 L Main.design.susan.r_pe1_pe2.s $end
$var real 1 M Main.design.susan.image_pe1_pe2 $end
$var real 1 N Main.design.susan.mid_pe1_pe2 $end
$var real 1 O Main.design.susan.pe1 $end
$var real 1 P Main.design.susan.pe2 $end
$var real 1 Q Main.design.susan.r_pe1_pe2 $end
$var real 1 R Main.design.in_image $end
$var real 1 S Main.design.out_image $end
$var real 1 T Main.design.read_image $end
$var real 1 U Main.design.susan $end
$var real 1 V Main.design.write_image $end
$var event 1 W Main.out_image.ack $end
$var event 1 X Main.out_image.req $end
$var event 1 Y Main.start.ack $end
$var event 1 Z Main.start.req $end
$var event 1 [ Main.start_time.r $end
$var event 1 \ Main.start_time.s $end
$var real 1 ] Main.design $end
$var real 1 ^ Main.monitor $end
$var real 1 _ Main.out_image $end
$var real 1 ` Main.start $end
$var real 1 a Main.start_time $end
$var real 1 b Main.stimulus $end
$var real 1 c Main $end
$var real 1 d _gl_string0 $end
$var real 1 e _gl_string1 $end
$var real 1 f _gl_string2 $end
$var real 1 g _gl_string3 $end
$var real 1 h _gl_string4 $end
$enddefinitions $end

#0
$dumpvars
0"
0#
0$
0%
0&
0'
0(
0)
0A
0B
0K
0L
0W
0X
0Y
0Z
0[
0\
$end
srunning c
sparent c
sparent c
sparent c
srunning b
swaiting b
srunning ]
sparent ]
sparent ]
sparent ]
srunning ^
swaiting ^
srunning T
swaiting T
srunning U
sparent U
sparent U
srunning V
swaiting V
srunning O
sparent O
srunning P
sparent P
sparent P
srunning 7
srunning 6
srunning 4
sparent 4
sparent 4
srunning J
srunning F
swaiting F
srunning H
srunning @
srunning >
swaiting >
srunning *
ssleeping *
srunning +
ssleeping +
#0
0Y
srunning b
srunning T
ssleeping b
swaiting T
#0
0[
srunning ^
swaiting ^
#1000
srunning b
swaiting b
#1000
0Z
srunning T
swaiting T
#1000
0Y
srunning b
srunning T
ssleeping b
swaiting T
#2000
srunning b
swaiting b
#2700
srunning +
srunning *
sinactive +
sinactive *
srunning 4
sinactive 4
srunning 5
srunning 2
sinactive 2
srunning 0
sparent 0
sparent 0
srunning ,
ssleeping ,
srunning -
ssleeping -
#2700
0#
srunning T
swaiting T
#2700
0Y
srunning b
srunning T
ssleeping b
swaiting T
#3700
srunning b
swaiting b
#19002700
srunning -
srunning ,
sinactive -
sinactive ,
srunning 0
sinactive 0
srunning 1
sparent 1
sparent 1
srunning .
ssleeping .
srunning /
ssleeping /
#39002700
srunning /
srunning .
sinactive /
sinactive .
srunning 1
sinactive 1
srunning 3
sinactive 3
sinactive 5
sinactive 6
srunning 6
srunning 4
sparent 4
sparent 4
srunning *
ssleeping *
srunning +
ssleeping +
#39002700
0&
0K
srunning F
srunning >
sinactive F
srunning E
sparent E
sparent E
swaiting >
srunning C
ssleeping C
srunning D
ssleeping D
#39005400
srunning +
srunning *
sinactive +
sinactive *
srunning 4
sinactive 4
srunning 5
srunning 2
sinactive 2
srunning 0
sparent 0
sparent 0
srunning ,
ssleeping ,
srunning -
ssleeping -
#39005400
0#
srunning T
swaiting T
#39005400
0Y
srunning b
srunning T
ssleeping b
swaiting T
#39006400
srunning b
swaiting b
#39182700
srunning D
srunning C
sinactive D
sinactive C
srunning E
sinactive E
srunning G
sinactive G
srunning F
swaiting F
#39182700
0A
srunning >
sinactive >
srunning <
sparent <
sparent <
srunning 8
ssleeping 8
srunning 9
ssleeping 9
#39782700
srunning 9
srunning 8
sinactive 9
sinactive 8
srunning <
sinactive <
srunning =
sparent =
sparent =
srunning :
ssleeping :
srunning ;
ssleeping ;
#40382700
srunning ;
srunning :
sinactive ;
sinactive :
srunning =
sinactive =
srunning ?
sinactive ?
sinactive @
srunning @
srunning >
swaiting >
#40382700
0$
srunning V
swaiting V
#40382700
0X
srunning ^
swaiting ^
#40382700
0W
srunning V
srunning ^
swaiting V
swaiting ^
#58005400
srunning -
srunning ,
sinactive -
sinactive ,
srunning 0
sinactive 0
srunning 1
sparent 1
sparent 1
srunning .
ssleeping .
srunning /
ssleeping /
#78005400
srunning /
srunning .
sinactive /
sinactive .
srunning 1
sinactive 1
srunning 3
sinactive 3
sinactive 5
sinactive 6
srunning 6
srunning 4
sparent 4
sparent 4
srunning *
ssleeping *
srunning +
ssleeping +
#78005400
0&
0K
srunning F
srunning >
sinactive F
srunning E
sparent E
sparent E
swaiting >
srunning C
ssleeping C
srunning D
ssleeping D
#78008100
srunning +
srunning *
sinactive +
sinactive *
srunning 4
sinactive 4
srunning 5
srunning 2
sinactive 2
srunning 0
sparent 0
sparent 0
srunning ,
ssleeping ,
srunning -
ssleeping -
#78008100
0#
srunning T
swaiting T
#78008100
0Y
srunning b
srunning T
ssleeping b
swaiting T
#78009100
srunning b
sinactive b
#78185400
srunning D
srunning C
sinactive D
sinactive C
srunning E
sinactive E
srunning G
sinactive G
srunning F
swaiting F
#78185400
0A
srunning >
sinactive >
srunning <
sparent <
sparent <
srunning 8
ssleeping 8
srunning 9
ssleeping 9
#78785400
srunning 9
srunning 8
sinactive 9
sinactive 8
srunning <
sinactive <
srunning =
sparent =
sparent =
srunning :
ssleeping :
srunning ;
ssleeping ;
#79385400
srunning ;
srunning :
sinactive ;
sinactive :
srunning =
sinactive =
srunning ?
sinactive ?
sinactive @
srunning @
srunning >
swaiting >
#79385400
0$
srunning V
swaiting V
#79385400
0X
srunning ^
swaiting ^
#79385400
0W
srunning V
srunning ^
swaiting V
swaiting ^
#97008100
srunning -
srunning ,
sinactive -
sinactive ,
srunning 0
sinactive 0
srunning 1
sparent 1
sparent 1
srunning .
ssleeping .
srunning /
ssleeping /
#117008100
srunning /
srunning .
sinactive /
sinactive .
srunning 1
sinactive 1
srunning 3
sinactive 3
sinactive 5
sinactive 6
srunning 6
srunning 4
sparent 4
sparent 4
srunning *
ssleeping *
srunning +
ssleeping +
#117008100
0&
0K
srunning F
srunning >
sinactive F
srunning E
sparent E
sparent E
swaiting >
srunning C
ssleeping C
srunning D
ssleeping D
#117010800
srunning +
srunning *
sinactive +
sinactive *
srunning 4
sinactive 4
srunning 5
srunning 2
sinactive 2
srunning 0
sparent 0
sparent 0
srunning ,
ssleeping ,
srunning -
ssleeping -
#117010800
0#
srunning T
swaiting T
#117188100
srunning D
srunning C
sinactive D
sinactive C
srunning E
sinactive E
srunning G
sinactive G
srunning F
swaiting F
#117188100
0A
srunning >
sinactive >
srunning <
sparent <
sparent <
srunning 8
ssleeping 8
srunning 9
ssleeping 9
#117788100
srunning 9
srunning 8
sinactive 9
sinactive 8
srunning <
sinactive <
srunning =
sparent =
sparent =
srunning :
ssleeping :
srunning ;
ssleeping ;
#118388100
srunning ;
srunning :
sinactive ;
sinactive :
srunning =
sinactive =
srunning ?
sinactive ?
sinactive @
srunning @
srunning >
swaiting >
#118388100
0$
srunning V
swaiting V
#118388100
0X
srunning ^
swaiting ^
#118388100
0W
srunning V
srunning ^
swaiting V
swaiting ^
#136010800
srunning -
srunning ,
sinactive -
sinactive ,
srunning 0
sinactive 0
srunning 1
sparent 1
sparent 1
srunning .
ssleeping .
srunning /
ssleeping /
#156010800
srunning /
srunning .
sinactive /
sinactive .
srunning 1
sinactive 1
srunning 3
sinactive 3
sinactive 5
sinactive 6
srunning 6
srunning 4
sparent 4
sparent 4
srunning *
ssleeping *
srunning +
ssleeping +
#156010800
0&
0K
srunning F
srunning >
sinactive F
srunning E
sparent E
sparent E
swaiting >
srunning C
ssleeping C
srunning D
ssleeping D
#156013500
srunning +
srunning *
sinactive +
sinactive *
srunning 4
sinactive 4
srunning 5
srunning 2
sinactive 2
srunning 0
sparent 0
sparent 0
srunning ,
ssleeping ,
srunning -
ssleeping -
#156190800
srunning D
srunning C
sinactive D
sinactive C
srunning E
sinactive E
srunning G
sinactive G
srunning F
swaiting F
#156190800
0A
srunning >
sinactive >
srunning <
sparent <
sparent <
srunning 8
ssleeping 8
srunning 9
ssleeping 9
#156790800
srunning 9
srunning 8
sinactive 9
sinactive 8
srunning <
sinactive <
srunning =
sparent =
sparent =
srunning :
ssleeping :
srunning ;
ssleeping ;
#157390800
srunning ;
srunning :
sinactive ;
sinactive :
srunning =
sinactive =
srunning ?
sinactive ?
sinactive @
srunning @
srunning >
swaiting >
#157390800
0$
srunning V
swaiting V
#157390800
0X
srunning ^
swaiting ^
#157390800
0W
srunning V
srunning ^
swaiting V
swaiting ^
#175013500
srunning -
srunning ,
sinactive -
sinactive ,
srunning 0
sinactive 0
srunning 1
sparent 1
sparent 1
srunning .
ssleeping .
srunning /
ssleeping /
#195013500
srunning /
srunning .
sinactive /
sinactive .
srunning 1
sinactive 1
srunning 3
sinactive 3
sinactive 5
sinactive 6
srunning 6
srunning 4
sparent 4
sparent 4
srunning *
ssleeping *
srunning +
ssleeping +
#195013500
0&
0K
srunning F
srunning >
sinactive F
srunning E
sparent E
sparent E
swaiting >
srunning C
ssleeping C
srunning D
ssleeping D
#195016200
srunning +
srunning *
sinactive +
sinactive *
srunning 4
sinactive 4
srunning 5
srunning 2
swaiting 2
#195193500
srunning D
srunning C
sinactive D
sinactive C
srunning E
sinactive E
srunning G
sinactive G
srunning F
swaiting F
#195193500
0A
srunning >
sinactive >
srunning <
sparent <
sparent <
srunning 8
ssleeping 8
srunning 9
ssleeping 9
#195793500
srunning 9
srunning 8
sinactive 9
sinactive 8
srunning <
sinactive <
srunning =
sparent =
sparent =
srunning :
ssleeping :
srunning ;
ssleeping ;
#196393500
srunning ;
srunning :
sinactive ;
sinactive :
srunning =
sinactive =
srunning ?
sinactive ?
sinactive @
srunning @
srunning >
swaiting >
#196393500
0$
srunning V
swaiting V
#196393500
0X
srunning ^
swaiting ^
#196393500
0W
srunning V
srunning ^
swaiting V
