lab2/partition2/susan_edge_detector.vcd
$date
	Thu Oct 15 11:49:19 2015
$end
$version
	UCI SpecC VCD Writer v0.001
$end
$timescale
	1ps
$end

$var real 0 ! anonymous $end
$var event 1 " Main.design.in_image.r $end
$var event 1 # Main.design.in_image.s $end
$var event 1 $ Main.design.out_image.r $end
$var event 1 % Main.design.out_image.s $end
$var real 1 & Main.design.susan.draw.edge_draw.edge_draw_a.edge_draw_a_thread_0 $end
$var real 1 ' Main.design.susan.draw.edge_draw.edge_draw_a.edge_draw_a_thread_1 $end
$var real 1 ( Main.design.susan.draw.edge_draw.edge_draw_b.edge_draw_b_thread_0 $end
$var real 1 ) Main.design.susan.draw.edge_draw.edge_draw_b.edge_draw_b_thread_1 $end
$var real 1 * Main.design.susan.draw.edge_draw.edge_draw_a $end
$var real 1 + Main.design.susan.draw.edge_draw.edge_draw_b $end
$var real 1 , Main.design.susan.draw.edge_draw.edge_draw_read_input $end
$var real 1 - Main.design.susan.draw.edge_draw.edge_draw_write_output $end
$var real 1 . Main.design.susan.draw.edge_draw $end
$var real 1 / Main.design.susan.edges.detect_edges.setup_brightness_lut.setup_brightness_thread_0 $end
$var real 1 0 Main.design.susan.edges.detect_edges.setup_brightness_lut.setup_brightness_thread_1 $end
$var real 1 1 Main.design.susan.edges.detect_edges.susan_edges.susan_edges_a.susan_edges_a_thread_0 $end
$var real 1 2 Main.design.susan.edges.detect_edges.susan_edges.susan_edges_a.susan_edges_a_thread_1 $end
$var real 1 3 Main.design.susan.edges.detect_edges.susan_edges.susan_edges_b.susan_edges_b_thread_0 $end
$var real 1 4 Main.design.susan.edges.detect_edges.susan_edges.susan_edges_b.susan_edges_b_thread_1 $end
$var real 1 5 Main.design.susan.edges.detect_edges.susan_edges.susan_edges_a $end
$var real 1 6 Main.design.susan.edges.detect_edges.susan_edges.susan_edges_b $end
$var real 1 7 Main.design.susan.edges.detect_edges.susan_edges.susan_edges_read_input $end
$var real 1 8 Main.design.susan.edges.detect_edges.susan_edges.susan_edges_write_output $end
$var real 1 9 Main.design.susan.edges.detect_edges.setup_brightness_lut $end
$var real 1 : Main.design.susan.edges.detect_edges.susan_edges $end
$var real 1 ; Main.design.susan.edges.detect_edges $end
$var event 1 < Main.design.susan.image_edge_draw.r $end
$var event 1 = Main.design.susan.image_edge_draw.s $end
$var event 1 > Main.design.susan.mid.r $end
$var event 1 ? Main.design.susan.mid.s $end
$var event 1 @ Main.design.susan.mid_edge_draw.r $end
$var event 1 A Main.design.susan.mid_edge_draw.s $end
$var event 1 B Main.design.susan.r.r $end
$var event 1 C Main.design.susan.r.s $end
$var real 1 D Main.design.susan.thin.susan_thin.susan_thin_thread_0 $end
$var real 1 E Main.design.susan.thin.susan_thin.susan_thin_thread_1 $end
$var real 1 F Main.design.susan.thin.susan_thin $end
$var real 1 G Main.design.susan.thin.susan_thin_read_input $end
$var real 1 H Main.design.susan.thin.susan_thin_write_output $end
$var real 1 I Main.design.susan.draw $end
$var real 1 J Main.design.susan.edges $end
$var real 1 K Main.design.susan.image_edge_draw $end
$var real 1 L Main.design.susan.mid $end
$var real 1 M Main.design.susan.mid_edge_draw $end
$var real 1 N Main.design.susan.r $end
$var real 1 O Main.design.susan.thin $end
$var real 1 P Main.design.in_image $end
$var real 1 Q Main.design.out_image $end
$var real 1 R Main.design.read_image $end
$var real 1 S Main.design.susan $end
$var real 1 T Main.design.write_image $end
$var event 1 U Main.out_image.ack $end
$var event 1 V Main.out_image.req $end
$var event 1 W Main.start.ack $end
$var event 1 X Main.start.req $end
$var event 1 Y Main.start_time.r $end
$var event 1 Z Main.start_time.s $end
$var real 1 [ Main.design $end
$var real 1 \ Main.monitor $end
$var real 1 ] Main.out_image $end
$var real 1 ^ Main.start $end
$var real 1 _ Main.start_time $end
$var real 1 ` Main.stimulus $end
$var real 1 a Main $end
$var real 1 b _gl_string0 $end
$var real 1 c _gl_string1 $end
$var real 1 d _gl_string2 $end
$var real 1 e _gl_string3 $end
$var real 1 f _gl_string4 $end
$enddefinitions $end

#0
$dumpvars
0"
0#
0$
0%
0<
0=
0>
0?
0@
0A
0B
0C
0U
0V
0W
0X
0Y
0Z
$end
srunning a
sparent a
sparent a
sparent a
srunning `
swaiting `
srunning [
sparent [
sparent [
sparent [
srunning \
swaiting \
srunning R
swaiting R
srunning S
sparent S
sparent S
sparent S
srunning T
swaiting T
srunning J
srunning ;
srunning 9
sparent 9
sparent 9
srunning O
srunning G
swaiting G
srunning I
srunning .
srunning ,
swaiting ,
srunning /
ssleeping /
srunning 0
ssleeping 0
#0
0W
srunning `
srunning R
ssleeping `
swaiting R
#0
0Y
srunning \
swaiting \
#1000
srunning `
swaiting `
#1000
0X
srunning R
swaiting R
#1000
0W
srunning `
srunning R
ssleeping `
swaiting R
#2000
srunning `
swaiting `
#2700
srunning 0
srunning /
sinactive 0
sinactive /
srunning 9
sinactive 9
srunning :
srunning 7
sinactive 7
srunning 5
sparent 5
sparent 5
srunning 1
ssleeping 1
srunning 2
ssleeping 2
#2700
0#
srunning R
swaiting R
#2700
0W
srunning `
srunning R
ssleeping `
swaiting R
#3700
srunning `
swaiting `
#19002700
srunning 2
srunning 1
sinactive 2
sinactive 1
srunning 5
sinactive 5
srunning 6
sparent 6
sparent 6
srunning 3
ssleeping 3
srunning 4
ssleeping 4
#39002700
srunning 4
srunning 3
sinactive 4
sinactive 3
srunning 6
sinactive 6
srunning 8
sinactive 8
sinactive :
sinactive ;
srunning ;
srunning 9
sparent 9
sparent 9
srunning /
ssleeping /
srunning 0
ssleeping 0
#39002700
0<
0B
srunning G
srunning ,
sinactive G
srunning F
sparent F
sparent F
swaiting ,
srunning D
ssleeping D
srunning E
ssleeping E
#39005400
srunning 0
srunning /
sinactive 0
sinactive /
srunning 9
sinactive 9
srunning :
srunning 7
sinactive 7
srunning 5
sparent 5
sparent 5
srunning 1
ssleeping 1
srunning 2
ssleeping 2
#39005400
0#
srunning R
swaiting R
#39005400
0W
srunning `
srunning R
ssleeping `
swaiting R
#39006400
srunning `
swaiting `
#39182700
srunning E
srunning D
sinactive E
sinactive D
srunning F
sinactive F
srunning H
sinactive H
srunning G
swaiting G
#39182700
0@
srunning ,
sinactive ,
srunning *
sparent *
sparent *
srunning &
ssleeping &
srunning '
ssleeping '
#39782700
srunning '
srunning &
sinactive '
sinactive &
srunning *
sinactive *
srunning +
sparent +
sparent +
srunning (
ssleeping (
srunning )
ssleeping )
#40382700
srunning )
srunning (
sinactive )
sinactive (
srunning +
sinactive +
srunning -
sinactive -
sinactive .
srunning .
srunning ,
swaiting ,
#40382700
0$
srunning T
swaiting T
#40382700
0V
srunning \
swaiting \
#40382700
0U
srunning T
srunning \
swaiting T
swaiting \
#58005400
srunning 2
srunning 1
sinactive 2
sinactive 1
srunning 5
sinactive 5
srunning 6
sparent 6
sparent 6
srunning 3
ssleeping 3
srunning 4
ssleeping 4
#78005400
srunning 4
srunning 3
sinactive 4
sinactive 3
srunning 6
sinactive 6
srunning 8
sinactive 8
sinactive :
sinactive ;
srunning ;
srunning 9
sparent 9
sparent 9
srunning /
ssleeping /
srunning 0
ssleeping 0
#78005400
0<
0B
srunning G
srunning ,
sinactive G
srunning F
sparent F
sparent F
swaiting ,
srunning D
ssleeping D
srunning E
ssleeping E
#78008100
srunning 0
srunning /
sinactive 0
sinactive /
srunning 9
sinactive 9
srunning :
srunning 7
sinactive 7
srunning 5
sparent 5
sparent 5
srunning 1
ssleeping 1
srunning 2
ssleeping 2
#78008100
0#
srunning R
swaiting R
#78008100
0W
srunning `
srunning R
ssleeping `
swaiting R
#78009100
srunning `
sinactive `
#78185400
srunning E
srunning D
sinactive E
sinactive D
srunning F
sinactive F
srunning H
sinactive H
srunning G
swaiting G
#78185400
0@
srunning ,
sinactive ,
srunning *
sparent *
sparent *
srunning &
ssleeping &
srunning '
ssleeping '
#78785400
srunning '
srunning &
sinactive '
sinactive &
srunning *
sinactive *
srunning +
sparent +
sparent +
srunning (
ssleeping (
srunning )
ssleeping )
#79385400
srunning )
srunning (
sinactive )
sinactive (
srunning +
sinactive +
srunning -
sinactive -
sinactive .
srunning .
srunning ,
swaiting ,
#79385400
0$
srunning T
swaiting T
#79385400
0V
srunning \
swaiting \
#79385400
0U
srunning T
srunning \
swaiting T
swaiting \
#97008100
srunning 2
srunning 1
sinactive 2
sinactive 1
srunning 5
sinactive 5
srunning 6
sparent 6
sparent 6
srunning 3
ssleeping 3
srunning 4
ssleeping 4
#117008100
srunning 4
srunning 3
sinactive 4
sinactive 3
srunning 6
sinactive 6
srunning 8
sinactive 8
sinactive :
sinactive ;
srunning ;
srunning 9
sparent 9
sparent 9
srunning /
ssleeping /
srunning 0
ssleeping 0
#117008100
0<
0B
srunning G
srunning ,
sinactive G
srunning F
sparent F
sparent F
swaiting ,
srunning D
ssleeping D
srunning E
ssleeping E
#117010800
srunning 0
srunning /
sinactive 0
sinactive /
srunning 9
sinactive 9
srunning :
srunning 7
sinactive 7
srunning 5
sparent 5
sparent 5
srunning 1
ssleeping 1
srunning 2
ssleeping 2
#117010800
0#
srunning R
swaiting R
#117188100
srunning E
srunning D
sinactive E
sinactive D
srunning F
sinactive F
srunning H
sinactive H
srunning G
swaiting G
#117188100
0@
srunning ,
sinactive ,
srunning *
sparent *
sparent *
srunning &
ssleeping &
srunning '
ssleeping '
#117788100
srunning '
srunning &
sinactive '
sinactive &
srunning *
sinactive *
srunning +
sparent +
sparent +
srunning (
ssleeping (
srunning )
ssleeping )
#118388100
srunning )
srunning (
sinactive )
sinactive (
srunning +
sinactive +
srunning -
sinactive -
sinactive .
srunning .
srunning ,
swaiting ,
#118388100
0$
srunning T
swaiting T
#118388100
0V
srunning \
swaiting \
#118388100
0U
srunning T
srunning \
swaiting T
swaiting \
#136010800
srunning 2
srunning 1
sinactive 2
sinactive 1
srunning 5
sinactive 5
srunning 6
sparent 6
sparent 6
srunning 3
ssleeping 3
srunning 4
ssleeping 4
#156010800
srunning 4
srunning 3
sinactive 4
sinactive 3
srunning 6
sinactive 6
srunning 8
sinactive 8
sinactive :
sinactive ;
srunning ;
srunning 9
sparent 9
sparent 9
srunning /
ssleeping /
srunning 0
ssleeping 0
#156010800
0<
0B
srunning G
srunning ,
sinactive G
srunning F
sparent F
sparent F
swaiting ,
srunning D
ssleeping D
srunning E
ssleeping E
#156013500
srunning 0
srunning /
sinactive 0
sinactive /
srunning 9
sinactive 9
srunning :
srunning 7
sinactive 7
srunning 5
sparent 5
sparent 5
srunning 1
ssleeping 1
srunning 2
ssleeping 2
#156190800
srunning E
srunning D
sinactive E
sinactive D
srunning F
sinactive F
srunning H
sinactive H
srunning G
swaiting G
#156190800
0@
srunning ,
sinactive ,
srunning *
sparent *
sparent *
srunning &
ssleeping &
srunning '
ssleeping '
#156790800
srunning '
srunning &
sinactive '
sinactive &
srunning *
sinactive *
srunning +
sparent +
sparent +
srunning (
ssleeping (
srunning )
ssleeping )
#157390800
srunning )
srunning (
sinactive )
sinactive (
srunning +
sinactive +
srunning -
sinactive -
sinactive .
srunning .
srunning ,
swaiting ,
#157390800
0$
srunning T
swaiting T
#157390800
0V
srunning \
swaiting \
#157390800
0U
srunning T
srunning \
swaiting T
swaiting \
#175013500
srunning 2
srunning 1
sinactive 2
sinactive 1
srunning 5
sinactive 5
srunning 6
sparent 6
sparent 6
srunning 3
ssleeping 3
srunning 4
ssleeping 4
#195013500
srunning 4
srunning 3
sinactive 4
sinactive 3
srunning 6
sinactive 6
srunning 8
sinactive 8
sinactive :
sinactive ;
srunning ;
srunning 9
sparent 9
sparent 9
srunning /
ssleeping /
srunning 0
ssleeping 0
#195013500
0<
0B
srunning G
srunning ,
sinactive G
srunning F
sparent F
sparent F
swaiting ,
srunning D
ssleeping D
srunning E
ssleeping E
#195016200
srunning 0
srunning /
sinactive 0
sinactive /
srunning 9
sinactive 9
srunning :
srunning 7
swaiting 7
#195193500
srunning E
srunning D
sinactive E
sinactive D
srunning F
sinactive F
srunning H
sinactive H
srunning G
swaiting G
#195193500
0@
srunning ,
sinactive ,
srunning *
sparent *
sparent *
srunning &
ssleeping &
srunning '
ssleeping '
#195793500
srunning '
srunning &
sinactive '
sinactive &
srunning *
sinactive *
srunning +
sparent +
sparent +
srunning (
ssleeping (
srunning )
ssleeping )
#196393500
srunning )
srunning (
sinactive )
sinactive (
srunning +
sinactive +
srunning -
sinactive -
sinactive .
srunning .
srunning ,
swaiting ,
#196393500
0$
srunning T
swaiting T
#196393500
0V
srunning \
swaiting \
#196393500
0U
srunning T
srunning \
swaiting T
